{
	"id": "https://arlabdevelopments.com/.well-known/datacenters/reDatacenterEs.json",
	"type": "gx:DataCenter",
	"gx:aggregationOf": [
		"https://arlabdevelopments.com/.well-known/resources/TODOsoConnectivity.json",
		"https://arlabdevelopments.com/.well-known/resources/TODOsoNetwork.json",
		"https://arlabdevelopments.com/.well-known/resources/TODOsoNodes.json"
	],
	"gx:maintainedBy": {
		"id": "did:web:arlabdevelopments.com"
	},
	"gx:ownedBy": {
		"id": "did:web:arlabdevelopments.com"
	},
	"gx:manufacturedBy": {
		"id": "did:web:arlabdevelopments.com"
	},
	"gx:locationAddress": {
		"vcard:country-name": "ES",
		"vcard:street-address": "Circunde 16",
		"vcard:postal-code": "26006",
		"vcard:locality": "Logroño"
	},
	"gx:locationGPS": "42.45754783585222, -2.3976922306120074",
	"gx:name": "Arsys Datacenter Logroño (Spain)",
	"gx:description": "Arsys Internet datacenter located at La Portalada, Logroño (Spain)",
	"gx:environmentalImpactReport": "https://www.arsys.net/about/sustainability",
	"gx:powerUsageEffectiveness": "1.25",
	"gx:environmentManagementSystem": [
		"Tier III Certification",
		"Information Security ISO 27001",
		"ISO 9001 Quality",
		"ISO 50001 Energy Management",
		"Spanish National Security Scheme",
		"SAP-Certified Infrastructure Operations Services",
		"AENOR Certificate of Good Practice for Electronic Commerce",
		"Environmental management ISO 14001:2015"
	]
}
