{
  "id": "https://arlabdevelopments.com/.well-known/datacenters/reRegionNorthSpain.json",
  "type": "gx:Region",
  "gx:name": "North of Spain",
  "gx:description": "List of all the Arsys' datacenters located in the north of Spain.",
  "gx:aggregationOf": [
    "https://arlabdevelopments.com/.well-known/resources/reDatacenterEs.json",
    "https://arlabdevelopments.com/.well-known/resources/TODODatacenterA.json",
    "https://arlabdevelopments.com/.well-known/resources/TODODatacenterB.json",
    "https://arlabdevelopments.com/.well-known/resources/TODODatacenterC.json"
  ]
}
