{
  "id": "https://arlabdevelopments.com/.well-known/resources/reUbuntu2204.json",
  "type": "gx:VMImage",
  "gx:format": "vmdk",
  "gx:diskFormat": "RAW",
  "gx:checkSum": {
    "gx:sum": "b98dac940a82b110e6265ca78d1320f1f7103861e922aa1a54e4202686e9bbd3",
    "gx:algorithm": "other"
  },
  "gx:version": "22.04.2 LTS",
  "gx:cpuReq": {
    "id": "https://arlabdevelopments.com/.well-known/configuration/coUbuntu2204Req.json"
  },
  "gx:fileSize": {
    "gx:value": "1.8",
    "gx:unit": "GB"
  },
  "gx:ramSize": {
    "gx:value": "1",
    "gx:unit": "GB"
  },
  "gx:numCpu": 2,
  "gx:hddSize": {
    "gx:value": "10",
    "gx:unit": "GB"
  },
  "gx:encryption": {
    "gx:encryptionAlgorithm": "",
    "gx:keyManagement": ""
  },
  "gx:signature": {
    "gx:signature": "",
    "gx:signatureAlgo": ""
  },
  "gx:name": "Ubuntu 22.04 + Plesk Obsidian",
  "gx:policy": [
    "default:allow"
  ],
  "gx:copyrightOwnedBy": [
    "Canonical Ltd."
  ],
  "gx:license": [
    "http://spdx.org/licenses/CC-BY-SA-3.0"
  ],
  "gx:description": "Version of the Ubuntu open-source desktop operating system that can be use to create a new cloud server provided by Arsys",
  "gx:aggregationOf": [
    "did:web:releases.ubuntu.com",
    "https://arlabdevelopments.com/.well-known/resources/TODOrePlesk.json"
  ]
}
