{
  "@context": [
    "https://www.w3.org/2018/credentials/v1",
    "https://w3id.org/security/suites/jws-2020/v1"
  ],
  "type": "VerifiableCredential",
  "id": "https://arlabdevelopments.com/.well-known/legalRegistrationNumberVC.json",
  "issuer": "did:web:registration.arlabdevelopments.com:v1",
  "issuanceDate": "2023-09-12T08:47:03.222Z",
  "credentialSubject": {
    "@context": "https://registry.lab.gaia-x.eu/development/api/trusted-shape-registry/v1/shapes/jsonld/trustframework#",
    "type": "gx:legalRegistrationNumber",
    "id": "https://arlabdevelopments.com/.well-known/legalRegistrationNumberVC.json",
    "gx:vatID": "ESB85294916",
    "gx:vatID-countryCode": "ES"
  },
  "evidence": [
    {
      "gx:evidenceURL": "http://ec.europa.eu/taxation_customs/vies/services/checkVatService",
      "gx:executionDate": "2023-09-12T08:47:03.222Z",
      "gx:evidenceOf": "gx:vatID"
    }
  ],
  "proof": {
    "type": "JsonWebSignature2020",
    "created": "2023-09-12T08:47:04.305Z",
    "proofPurpose": "assertionMethod",
    "verificationMethod": "did:web:registration.arlabdevelopments.com:v1#X509-JWK2020",
    "jws": "eyJhbGciOiJQUzI1NiIsImI2NCI6ZmFsc2UsImNyaXQiOlsiYjY0Il19..Y4ISmEoI-xrqekxEgSWb3dX42Rznr8GP7PT4Q4G9bYCg-YACBN_x89v2kYoxir1Y-wC4fxkGtRwlQ8U8N4P8BfWtF9t1gj0cP-1YpwluE68KfqiefMO9zKb4hWe3oxlJ2cKbzBwACFYa8-K10hwTDTCYy_0Ft-NQN0wQuiieiw2P0aYDtpEeZYJFNiH9NmKxe5FMvZyY7eiEyqzeYl3AfXlAD_Pum-jWRB-M8B8eRHoL8tW6zaurzYiuUiPaDIRUHw4Jg497vAwEOVjrhdldkv7BqXGwrlzxQT1WYfv1z0Ft5QBRxFOkYA7MuuromMKGsdxZPtAClaViY08R677sKg"
  }
}
